Taller - Series de Tiempo y Python IIE - UNAM
…
# Construimos la TS 

BricksTS <- ts(Bricks$Bricks,frequency = 12, start = c(1946, 3))
ElectricityTS <- ts(Electricity$Kwh,frequency = 12, start = c(1956, 1))

#plot.ts(BricksTS)
plot.ts(ElectricityTS)
#ts_decompose(BricksTS, type = "both")
Bricks

# A tibble: 155 × 2
   Dates               Bricks
   <dttm>               <dbl>
 1 1956-03-01 00:00:00    189
 2 1956-04-01 00:00:00    204
 3 1956-05-01 00:00:00    208
 4 1956-06-01 00:00:00    197
 5 1956-07-01 00:00:00    187
 6 1956-08-01 00:00:00    214
 7 1956-09-01 00:00:00    227
 8 1956-10-01 00:00:00    223
 9 1956-11-01 00:00:00    199
10 1956-12-01 00:00:00    229
# ℹ 145 more rows
# ℹ Use `print(n = ...)` to see more rows
…
